Corpus Studies in Music - Week 3: Data Analysis, Time, Cadences, Phrases, etc.
…
Filter and grep grabs everything from the cadence column that ends with a “C”.

The select only grabs the columns I want (here the filename and the cadence column)

I then count all the cadences

I use mutate from the tidyverse to create a percentage column.

df |> filter(grepl("C", cadence)) |> 
        select(song, cadence) |> 
        group_by(song) |> 
        count(cadence, sort = TRUE) |>
        mutate(percentage = n / sum(n) * 100)

# A tibble: 27 × 4
# Groups:   song [13]
   song              cadence     n percentage
   <chr>             <chr>   <int>      <dbl>
 1 n11.harmonies.tsv HC          7       77.8
 2 n12.harmonies.tsv HC          6       85.7
 3 n06.harmonies.tsv PAC         5      100  
 4 n02.harmonies.tsv IAC         4       40  
 5 n02.harmonies.tsv PAC         4       40  
 6 n03.harmonies.tsv PAC         4       66.7
 7 n04.harmonies.tsv HC          4       66.7
 8 n08.harmonies.tsv IAC         4       50  
 9 n08.harmonies.tsv PAC         4       50  
10 n10.harmonies.tsv HC          4       50  
# ℹ 17 more rows
…
  }
    return(df_count)
}
bigram_data <- harmonic_bigrams(data=df, percentage=TRUE)

Once I’ve defined that function by running it, I can call it with my data:

bigram_data <- harmonic_bigrams(data=df, percentage=TRUE)

bigram_data

# A tibble: 68 × 4
# Groups:   numeral [15]
   numeral next_numeral     n percentage
   <chr>   <chr>        <int>      <dbl>
 1 #vii    #vii             3      27.3 
 2 #vii    I                4      36.4 
 3 #vii    V                2      18.2 
 4 #vii    i                2      18.2 
 5 I       I               18      19.4 
 6 I       IV              10      10.8 
 7 I       V               47      50.5 
 8 I       i                4       4.3 
 9 I       ii               4       4.3 
10 I       iii              1       1.08
# ℹ 58 more rows
…
