Corpus Studies in Music - Week 4: Conceptual Debates (Key-Finding, Entropy, etc.)
…
    tune |> compmus_match_pitch_template(
    key_templates,         # Change to chord_templates if descired
    method = "pearson",  # Try different distance metrics
    norm = "manhattan"     # Try different norms
    ) |> 
    group_by(name)  |>
    summarise(weight = sum(d)) |> 
    arrange(weight)

# A tibble: 24 × 2
   name   weight
   <fct>   <dbl>
 1 A:maj    5.36
 2 D:maj    7.22
 3 D:min    9.56
 4 F#:min   9.97
 5 A:min   10.3 
 6 B:min   12.0 
 7 C#:min  12.0 
 8 E:maj   12.9 
 9 G:maj   13.5 
10 E:min   15.3 
# ℹ 14 more rows
…
If I rerun this code with Sapp’s simple weightings, it thinks it’s in D major:

    tune |> compmus_match_pitch_template(
    key_templates,         # Change to chord_templates if descired
    method = "pearson",  # Try different distance metrics
    norm = "manhattan"     # Try different norms
    ) |> 
    group_by(name)  |>
    summarise(weight = sum(d)) |> 
    arrange(weight)

# A tibble: 24 × 2
   name   weight
   <fct>   <dbl>
 1 A:maj    5.36
 2 D:maj    7.22
 3 D:min    9.56
 4 F#:min   9.97
 5 A:min   10.3 
 6 B:min   12.0 
 7 C#:min  12.0 
 8 E:maj   12.9 
 9 G:maj   13.5 
10 E:min   15.3 
# ℹ 14 more rows
…
    tune |> compmus_match_pitch_template(
    key_templates,         # Change to chord_templates if descired
    method = "pearson",  # Try different distance metrics
    norm = "manhattan"     # Try different norms
    ) |> 
    group_by(name)  |>
    summarise(weight = sum(d)) |> 
    arrange(weight)

# A tibble: 24 × 2
   name   weight
   <fct>   <dbl>
 1 D:maj    6.79
 2 A:maj    6.89
 3 D:min    8.92
 4 F#:min   9.84
 5 A:min   10.5 
 6 B:min   11.6 
 7 G:maj   12.0 
 8 C#:min  12.4 
 9 E:min   13.6 
10 C:maj   13.8 
# ℹ 14 more rows
…
